This file contains any messages produced by compilers while
running configure, to aid debugging if configure makes a mistake.

It was created by wire configure 2.0, which was
generated by GNU Autoconf 2.61.  Invocation command line was

  $ ./configure --enable-pthreads

## --------- ##
## Platform. ##
## --------- ##

hostname = MacBook-Pro-de-nark.local
uname -m = x86_64
uname -r = 11.3.0
uname -s = Darwin
uname -v = Darwin Kernel Version 11.3.0: Thu Jan 12 18:47:41 PST 2012; root:xnu-1699.24.23~1/RELEASE_X86_64

/usr/bin/uname -p = i386
/bin/uname -X     = unknown

/bin/arch              = unknown
/usr/bin/arch -k       = unknown
/usr/convex/getsysinfo = unknown
/usr/bin/hostinfo      = Mach kernel version:
	 Darwin Kernel Version 11.3.0: Thu Jan 12 18:47:41 PST 2012; root:xnu-1699.24.23~1/RELEASE_X86_64
Kernel configured for up to 4 processors.
2 processors are physically available.
4 processors are logically available.
Processor type: i486 (Intel 80486)
Processors active: 0 1 2 3
Primary memory available: 8.00 gigabytes
Default processor set: 147 tasks, 710 threads, 4 processors
Load average: 1.52, Mach factor: 2.68
/bin/machine           = unknown
/usr/bin/oslevel       = unknown
/bin/universe          = unknown

PATH: /usr/bin
PATH: /bin
PATH: /usr/sbin
PATH: /sbin
PATH: /usr/local/bin
PATH: /usr/X11/bin
PATH: /usr/libexec
PATH: /Users/nark/.rvm/bin
PATH: /opt/local/bin
PATH: /Users/nark/.rvm/bin


## ----------- ##
## Core tests. ##
## ----------- ##

configure:1857: checking build system type
configure:1875: result: i686-apple-darwin11.3.0
configure:1897: checking host system type
configure:1912: result: i686-apple-darwin11.3.0
configure:2023: checking for gcc
configure:2039: found /usr/bin/gcc
configure:2050: result: gcc
configure:2288: checking for C compiler version
configure:2295: gcc --version >&5
i686-apple-darwin11-llvm-gcc-4.2 (GCC) 4.2.1 (Based on Apple Inc. build 5658) (LLVM build 2336.1.00)
Copyright (C) 2007 Free Software Foundation, Inc.
This is free software; see the source for copying conditions.  There is NO
warranty; not even for MERCHANTABILITY or FITNESS FOR A PARTICULAR PURPOSE.

configure:2298: $? = 0
configure:2305: gcc -v >&5
Using built-in specs.
Target: i686-apple-darwin11
Configured with: /private/var/tmp/llvmgcc42/llvmgcc42-2336.1~22/src/configure --disable-checking --enable-werror --prefix=/Developer/usr/llvm-gcc-4.2 --mandir=/share/man --enable-languages=c,objc,c++,obj-c++ --program-prefix=llvm- --program-transform-name=/^[cg][^.-]*$/s/$/-4.2/ --with-slibdir=/usr/lib --build=i686-apple-darwin11 --enable-llvm=/private/var/tmp/llvmgcc42/llvmgcc42-2336.1~22/dst-llvmCore/Developer/usr/local --program-prefix=i686-apple-darwin11- --host=x86_64-apple-darwin11 --target=i686-apple-darwin11 --with-gxx-include-dir=/usr/include/c++/4.2.1
Thread model: posix
gcc version 4.2.1 (Based on Apple Inc. build 5658) (LLVM build 2336.1.00)
configure:2308: $? = 0
configure:2315: gcc -V >&5
llvm-gcc-4.2: argument to `-V' is missing
configure:2318: $? = 1
configure:2341: checking for C compiler default output file name
configure:2368: gcc  -I/usr/local/Cellar/libiconv/1.14/include -L/usr/local/Cellar/libiconv/1.14/lib conftest.c -liconv >&5
configure:2371: $? = 0
configure:2409: result: a.out
configure:2426: checking whether the C compiler works
configure:2436: ./a.out
configure:2439: $? = 0
configure:2456: result: yes
configure:2463: checking whether we are cross compiling
configure:2465: result: no
configure:2468: checking for suffix of executables
configure:2475: gcc -o conftest  -I/usr/local/Cellar/libiconv/1.14/include -L/usr/local/Cellar/libiconv/1.14/lib conftest.c -liconv >&5
configure:2478: $? = 0
configure:2502: result: 
configure:2508: checking for suffix of object files
configure:2534: gcc -c  -I/usr/local/Cellar/libiconv/1.14/include conftest.c >&5
configure:2537: $? = 0
configure:2560: result: o
configure:2564: checking whether we are using the GNU C compiler
configure:2593: gcc -c  -I/usr/local/Cellar/libiconv/1.14/include conftest.c >&5
configure:2599: $? = 0
configure:2616: result: yes
configure:2621: checking whether gcc accepts -g
configure:2651: gcc -c -g -I/usr/local/Cellar/libiconv/1.14/include conftest.c >&5
configure:2657: $? = 0
configure:2756: result: yes
configure:2773: checking for gcc option to accept ISO C89
configure:2847: gcc  -c -g -O2 -I/usr/local/Cellar/libiconv/1.14/include conftest.c >&5
configure:2853: $? = 0
configure:2876: result: none needed
configure:2907: checking for a BSD-compatible install
configure:2963: result: /usr/bin/install -c
configure:2974: checking whether make sets $(MAKE)
configure:2995: result: yes
configure:3010: checking for warning flags
configure:3582: result: none
configure:3745: checking how to run the C preprocessor
configure:3785: gcc -E -I/usr/local/Cellar/libiconv/1.14/include -I/usr/local/include conftest.c
configure:3791: $? = 0
configure:3822: gcc -E -I/usr/local/Cellar/libiconv/1.14/include -I/usr/local/include conftest.c
conftest.c:12:28: error: ac_nonexistent.h: No such file or directory
configure:3828: $? = 1
configure: failed program was:
| /* confdefs.h.  */
| #define PACKAGE_NAME "wire"
| #define PACKAGE_TARNAME "wire"
| #define PACKAGE_VERSION "2.0"
| #define PACKAGE_STRING "wire 2.0"
| #define PACKAGE_BUGREPORT "dev@read-write.fr"
| #define WI_REVISION "86d79f6"
| #define WR_VERSION "2.0"
| #define WR_PROTOCOL_VERSION "1.1"
| #define WR_BUGREPORT "dev@read-write.fr"
| /* end confdefs.h.  */
| #include <ac_nonexistent.h>
configure:3861: result: gcc -E
configure:3890: gcc -E -I/usr/local/Cellar/libiconv/1.14/include -I/usr/local/include conftest.c
configure:3896: $? = 0
configure:3927: gcc -E -I/usr/local/Cellar/libiconv/1.14/include -I/usr/local/include conftest.c
conftest.c:12:28: error: ac_nonexistent.h: No such file or directory
configure:3933: $? = 1
configure: failed program was:
| /* confdefs.h.  */
| #define PACKAGE_NAME "wire"
| #define PACKAGE_TARNAME "wire"
| #define PACKAGE_VERSION "2.0"
| #define PACKAGE_STRING "wire 2.0"
| #define PACKAGE_BUGREPORT "dev@read-write.fr"
| #define WI_REVISION "86d79f6"
| #define WR_VERSION "2.0"
| #define WR_PROTOCOL_VERSION "1.1"
| #define WR_BUGREPORT "dev@read-write.fr"
| /* end confdefs.h.  */
| #include <ac_nonexistent.h>
configure:3971: checking for grep that handles long lines and -e
configure:4045: result: /usr/bin/grep
configure:4050: checking for egrep
configure:4128: result: /usr/bin/grep -E
configure:4133: checking for ANSI C header files
configure:4163: gcc -c -g -O2 -I/usr/local/Cellar/libiconv/1.14/include -I/usr/local/include conftest.c >&5
configure:4169: $? = 0
configure:4268: gcc -o conftest -g -O2 -I/usr/local/Cellar/libiconv/1.14/include -I/usr/local/include -L/usr/local/Cellar/libiconv/1.14/lib -L/usr/local/lib conftest.c -liconv >&5
configure:4271: $? = 0
configure:4277: ./conftest
configure:4280: $? = 0
configure:4297: result: yes
configure:4321: checking for sys/types.h
configure:4342: gcc -c -g -O2 -I/usr/local/Cellar/libiconv/1.14/include -I/usr/local/include conftest.c >&5
configure:4348: $? = 0
configure:4364: result: yes
configure:4321: checking for sys/stat.h
configure:4342: gcc -c -g -O2 -I/usr/local/Cellar/libiconv/1.14/include -I/usr/local/include conftest.c >&5
configure:4348: $? = 0
configure:4364: result: yes
configure:4321: checking for stdlib.h
configure:4342: gcc -c -g -O2 -I/usr/local/Cellar/libiconv/1.14/include -I/usr/local/include conftest.c >&5
configure:4348: $? = 0
configure:4364: result: yes
configure:4321: checking for string.h
configure:4342: gcc -c -g -O2 -I/usr/local/Cellar/libiconv/1.14/include -I/usr/local/include conftest.c >&5
configure:4348: $? = 0
configure:4364: result: yes
configure:4321: checking for memory.h
configure:4342: gcc -c -g -O2 -I/usr/local/Cellar/libiconv/1.14/include -I/usr/local/include conftest.c >&5
configure:4348: $? = 0
configure:4364: result: yes
configure:4321: checking for strings.h
configure:4342: gcc -c -g -O2 -I/usr/local/Cellar/libiconv/1.14/include -I/usr/local/include conftest.c >&5
configure:4348: $? = 0
configure:4364: result: yes
configure:4321: checking for inttypes.h
configure:4342: gcc -c -g -O2 -I/usr/local/Cellar/libiconv/1.14/include -I/usr/local/include conftest.c >&5
configure:4348: $? = 0
configure:4364: result: yes
configure:4321: checking for stdint.h
configure:4342: gcc -c -g -O2 -I/usr/local/Cellar/libiconv/1.14/include -I/usr/local/include conftest.c >&5
configure:4348: $? = 0
configure:4364: result: yes
configure:4321: checking for unistd.h
configure:4342: gcc -c -g -O2 -I/usr/local/Cellar/libiconv/1.14/include -I/usr/local/include conftest.c >&5
configure:4348: $? = 0
configure:4364: result: yes
configure:4403: checking pthread.h usability
configure:4420: gcc -c -g -O2 -I/usr/local/Cellar/libiconv/1.14/include -I/usr/local/include conftest.c >&5
configure:4426: $? = 0
configure:4440: result: yes
configure:4444: checking pthread.h presence
configure:4459: gcc -E -I/usr/local/Cellar/libiconv/1.14/include -I/usr/local/include conftest.c
configure:4465: $? = 0
configure:4479: result: yes
configure:4512: checking for pthread.h
configure:4520: result: yes
configure:4529: checking for pthreads
configure:4646: gcc -o conftest -g -O2 -I/usr/local/Cellar/libiconv/1.14/include -I/usr/local/include -L/usr/local/Cellar/libiconv/1.14/lib -L/usr/local/lib conftest.c -liconv >&5
configure:4649: $? = 0
configure:4655: ./conftest
configure:4658: $? = 0
configure:4996: result: yes
configure:5046: checking for pow
configure:5102: gcc -o conftest -g -O2 -I/usr/local/Cellar/libiconv/1.14/include -I/usr/local/include -DWI_PTHREADS -L/usr/local/Cellar/libiconv/1.14/lib -L/usr/local/lib conftest.c -liconv >&5
conftest.c:46: warning: conflicting types for built-in function 'pow'
configure:5108: $? = 0
configure:5125: result: yes
configure:5217: checking for setsockopt
configure:5273: gcc -o conftest -g -O2 -I/usr/local/Cellar/libiconv/1.14/include -I/usr/local/include -DWI_PTHREADS -L/usr/local/Cellar/libiconv/1.14/lib -L/usr/local/lib conftest.c -liconv >&5
configure:5279: $? = 0
configure:5296: result: yes
configure:5388: checking for gethostent
configure:5444: gcc -o conftest -g -O2 -I/usr/local/Cellar/libiconv/1.14/include -I/usr/local/include -DWI_PTHREADS -L/usr/local/Cellar/libiconv/1.14/lib -L/usr/local/lib conftest.c -liconv >&5
configure:5450: $? = 0
configure:5467: result: yes
configure:5559: checking for herror
configure:5615: gcc -o conftest -g -O2 -I/usr/local/Cellar/libiconv/1.14/include -I/usr/local/include -DWI_PTHREADS -L/usr/local/Cellar/libiconv/1.14/lib -L/usr/local/lib conftest.c -liconv >&5
configure:5621: $? = 0
configure:5638: result: yes
configure:5745: checking CoreServices/CoreServices.h usability
configure:5762: gcc -c -g -O2 -I/usr/local/Cellar/libiconv/1.14/include -I/usr/local/include -DWI_PTHREADS conftest.c >&5
configure:5768: $? = 0
configure:5782: result: yes
configure:5786: checking CoreServices/CoreServices.h presence
configure:5801: gcc -E -I/usr/local/Cellar/libiconv/1.14/include -I/usr/local/include -DWI_PTHREADS conftest.c
configure:5807: $? = 0
configure:5821: result: yes
configure:5854: checking for CoreServices/CoreServices.h
configure:5862: result: yes
configure:5920: checking Carbon/Carbon.h usability
configure:5937: gcc -c -g -O2 -I/usr/local/Cellar/libiconv/1.14/include -I/usr/local/include -DWI_PTHREADS -DWI_CORESERVICES conftest.c >&5
configure:5943: $? = 0
configure:5957: result: yes
configure:5961: checking Carbon/Carbon.h presence
configure:5976: gcc -E -I/usr/local/Cellar/libiconv/1.14/include -I/usr/local/include -DWI_PTHREADS -DWI_CORESERVICES conftest.c
configure:5982: $? = 0
configure:5996: result: yes
configure:6029: checking for Carbon/Carbon.h
configure:6037: result: yes
configure:6098: checking CommonCrypto/CommonDigest.h usability
configure:6115: gcc -c -g -O2 -I/usr/local/Cellar/libiconv/1.14/include -I/usr/local/include -DWI_PTHREADS -DWI_CORESERVICES -DWI_CARBON conftest.c >&5
configure:6121: $? = 0
configure:6135: result: yes
configure:6139: checking CommonCrypto/CommonDigest.h presence
configure:6154: gcc -E -I/usr/local/Cellar/libiconv/1.14/include -I/usr/local/include -DWI_PTHREADS -DWI_CORESERVICES -DWI_CARBON conftest.c
configure:6160: $? = 0
configure:6174: result: yes
configure:6207: checking for CommonCrypto/CommonDigest.h
configure:6215: result: yes
configure:6098: checking CommonCrypto/CommonCryptor.h usability
configure:6115: gcc -c -g -O2 -I/usr/local/Cellar/libiconv/1.14/include -I/usr/local/include -DWI_PTHREADS -DWI_CORESERVICES -DWI_CARBON -DWI_DIGESTS -DWI_CIPHERS conftest.c >&5
configure:6121: $? = 0
configure:6135: result: yes
configure:6139: checking CommonCrypto/CommonCryptor.h presence
configure:6154: gcc -E -I/usr/local/Cellar/libiconv/1.14/include -I/usr/local/include -DWI_PTHREADS -DWI_CORESERVICES -DWI_CARBON -DWI_DIGESTS -DWI_CIPHERS conftest.c
configure:6160: $? = 0
configure:6174: result: yes
configure:6207: checking for CommonCrypto/CommonCryptor.h
configure:6215: result: yes
configure:6271: checking for CommonCrypto/CommonDigest.h
configure:6277: result: yes
configure:6271: checking for CommonCrypto/CommonCryptor.h
configure:6277: result: yes
configure:6855: checking openssl/sha.h usability
configure:6872: gcc -c -g -O2 -I/usr/local/Cellar/libiconv/1.14/include -I/usr/local/include -DWI_PTHREADS -DWI_CORESERVICES -DWI_CARBON -DWI_DIGESTS -DWI_CIPHERS conftest.c >&5
configure:6878: $? = 0
configure:6892: result: yes
configure:6896: checking openssl/sha.h presence
configure:6911: gcc -E -I/usr/local/Cellar/libiconv/1.14/include -I/usr/local/include -DWI_PTHREADS -DWI_CORESERVICES -DWI_CARBON -DWI_DIGESTS -DWI_CIPHERS conftest.c
configure:6917: $? = 0
configure:6931: result: yes
configure:6964: checking for openssl/sha.h
configure:6972: result: yes
configure:7004: checking for SHA1_Init in -lcrypto
configure:7039: gcc -o conftest -g -O2 -I/usr/local/Cellar/libiconv/1.14/include -I/usr/local/include -DWI_PTHREADS -DWI_CORESERVICES -DWI_CARBON -DWI_DIGESTS -DWI_CIPHERS -L/usr/local/Cellar/libiconv/1.14/lib -L/usr/local/lib conftest.c -lcrypto  -liconv -framework CoreServices -framework Carbon >&5
configure:7045: $? = 0
configure:7063: result: yes
configure:7195: checking libxml/parser.h usability
configure:7212: gcc -c -g -O2 -I/usr/local/Cellar/libiconv/1.14/include -I/usr/local/include -DWI_PTHREADS -DWI_CORESERVICES -DWI_CARBON -DWI_DIGESTS -DWI_CIPHERS -DWI_RSA -I/usr/include/libxml2 conftest.c >&5
configure:7218: $? = 0
configure:7232: result: yes
configure:7236: checking libxml/parser.h presence
configure:7251: gcc -E -I/usr/local/Cellar/libiconv/1.14/include -I/usr/local/include -DWI_PTHREADS -DWI_CORESERVICES -DWI_CARBON -DWI_DIGESTS -DWI_CIPHERS -DWI_RSA -I/usr/include/libxml2 conftest.c
configure:7257: $? = 0
configure:7271: result: yes
configure:7304: checking for libxml/parser.h
configure:7312: result: yes
configure:7342: checking for xmlParseFile in -lxml2
configure:7377: gcc -o conftest -g -O2 -I/usr/local/Cellar/libiconv/1.14/include -I/usr/local/include -DWI_PTHREADS -DWI_CORESERVICES -DWI_CARBON -DWI_DIGESTS -DWI_CIPHERS -DWI_RSA -I/usr/include/libxml2 -L/usr/local/Cellar/libiconv/1.14/lib -L/usr/local/lib conftest.c -lxml2  -liconv -framework CoreServices -framework Carbon -lcrypto >&5
configure:7383: $? = 0
configure:7401: result: yes
configure:7479: checking zlib.h usability
configure:7496: gcc -c -g -O2 -I/usr/local/Cellar/libiconv/1.14/include -I/usr/local/include -DWI_PTHREADS -DWI_CORESERVICES -DWI_CARBON -DWI_DIGESTS -DWI_CIPHERS -DWI_RSA -I/usr/include/libxml2 -DWI_LIBXML2 -DWI_PLIST conftest.c >&5
configure:7502: $? = 0
configure:7516: result: yes
configure:7520: checking zlib.h presence
configure:7535: gcc -E -I/usr/local/Cellar/libiconv/1.14/include -I/usr/local/include -DWI_PTHREADS -DWI_CORESERVICES -DWI_CARBON -DWI_DIGESTS -DWI_CIPHERS -DWI_RSA -I/usr/include/libxml2 -DWI_LIBXML2 -DWI_PLIST conftest.c
configure:7541: $? = 0
configure:7555: result: yes
configure:7588: checking for zlib.h
configure:7596: result: yes
configure:7626: checking for deflate in -lz
configure:7661: gcc -o conftest -g -O2 -I/usr/local/Cellar/libiconv/1.14/include -I/usr/local/include -DWI_PTHREADS -DWI_CORESERVICES -DWI_CARBON -DWI_DIGESTS -DWI_CIPHERS -DWI_RSA -I/usr/include/libxml2 -DWI_LIBXML2 -DWI_PLIST -L/usr/local/Cellar/libiconv/1.14/lib -L/usr/local/lib conftest.c -lz  -liconv -framework CoreServices -framework Carbon -lcrypto -lxml2 >&5
configure:7667: $? = 0
configure:7685: result: yes
configure:7765: checking iconv.h usability
configure:7782: gcc -c -g -O2 -I/usr/local/Cellar/libiconv/1.14/include -I/usr/local/include -DWI_PTHREADS -DWI_CORESERVICES -DWI_CARBON -DWI_DIGESTS -DWI_CIPHERS -DWI_RSA -I/usr/include/libxml2 -DWI_LIBXML2 -DWI_PLIST -DWI_ZLIB -DWI_P7 conftest.c >&5
configure:7788: $? = 0
configure:7802: result: yes
configure:7806: checking iconv.h presence
configure:7821: gcc -E -I/usr/local/Cellar/libiconv/1.14/include -I/usr/local/include -DWI_PTHREADS -DWI_CORESERVICES -DWI_CARBON -DWI_DIGESTS -DWI_CIPHERS -DWI_RSA -I/usr/include/libxml2 -DWI_LIBXML2 -DWI_PLIST -DWI_ZLIB -DWI_P7 conftest.c
configure:7827: $? = 0
configure:7841: result: yes
configure:7874: checking for iconv.h
configure:7882: result: yes
configure:7912: checking for iconv in -liconv
configure:7947: gcc -o conftest -g -O2 -I/usr/local/Cellar/libiconv/1.14/include -I/usr/local/include -DWI_PTHREADS -DWI_CORESERVICES -DWI_CARBON -DWI_DIGESTS -DWI_CIPHERS -DWI_RSA -I/usr/include/libxml2 -DWI_LIBXML2 -DWI_PLIST -DWI_ZLIB -DWI_P7 -L/usr/local/Cellar/libiconv/1.14/lib -L/usr/local/lib conftest.c -liconv  -liconv -framework CoreServices -framework Carbon -lcrypto -lxml2 -lz >&5
Undefined symbols for architecture x86_64:
  "_iconv", referenced from:
      _main in cciz7W9L.o
ld: symbol(s) not found for architecture x86_64
collect2: ld returned 1 exit status
configure:7953: $? = 1
configure: failed program was:
| /* confdefs.h.  */
| #define PACKAGE_NAME "wire"
| #define PACKAGE_TARNAME "wire"
| #define PACKAGE_VERSION "2.0"
| #define PACKAGE_STRING "wire 2.0"
| #define PACKAGE_BUGREPORT "dev@read-write.fr"
| #define WI_REVISION "86d79f6"
| #define WR_VERSION "2.0"
| #define WR_PROTOCOL_VERSION "1.1"
| #define WR_BUGREPORT "dev@read-write.fr"
| #define STDC_HEADERS 1
| #define HAVE_SYS_TYPES_H 1
| #define HAVE_SYS_STAT_H 1
| #define HAVE_STDLIB_H 1
| #define HAVE_STRING_H 1
| #define HAVE_MEMORY_H 1
| #define HAVE_STRINGS_H 1
| #define HAVE_INTTYPES_H 1
| #define HAVE_STDINT_H 1
| #define HAVE_UNISTD_H 1
| #define HAVE_PTHREAD_H 1
| #define HAVE_CORESERVICES_CORESERVICES_H 1
| #define HAVE_CARBON_CARBON_H 1
| #define HAVE_COMMONCRYPTO_COMMONDIGEST_H 1
| #define HAVE_COMMONCRYPTO_COMMONCRYPTOR_H 1
| #define HAVE_COMMONCRYPTO_COMMONDIGEST_H 1
| #define HAVE_COMMONCRYPTO_COMMONCRYPTOR_H 1
| #define HAVE_OPENSSL_SHA_H 1
| #define HAVE_LIBXML_PARSER_H 1
| #define HAVE_ZLIB_H 1
| #define HAVE_ICONV_H 1
| /* end confdefs.h.  */
| 
| /* Override any GCC internal prototype to avoid an error.
|    Use char because int might match the return type of a GCC
|    builtin and then its argument prototype would still apply.  */
| #ifdef __cplusplus
| extern "C"
| #endif
| char iconv ();
| int
| main ()
| {
| return iconv ();
|   ;
|   return 0;
| }
configure:7971: result: no
configure:7989: checking for libiconv in -liconv
configure:8024: gcc -o conftest -g -O2 -I/usr/local/Cellar/libiconv/1.14/include -I/usr/local/include -DWI_PTHREADS -DWI_CORESERVICES -DWI_CARBON -DWI_DIGESTS -DWI_CIPHERS -DWI_RSA -I/usr/include/libxml2 -DWI_LIBXML2 -DWI_PLIST -DWI_ZLIB -DWI_P7 -L/usr/local/Cellar/libiconv/1.14/lib -L/usr/local/lib conftest.c -liconv  -liconv -framework CoreServices -framework Carbon -lcrypto -lxml2 -lz >&5
configure:8030: $? = 0
configure:8048: result: yes
configure:8174: checking if iconv understands Unicode
configure:8200: gcc -o conftest -g -O2 -I/usr/local/Cellar/libiconv/1.14/include -I/usr/local/include -DWI_PTHREADS -DWI_CORESERVICES -DWI_CARBON -DWI_DIGESTS -DWI_CIPHERS -DWI_RSA -I/usr/include/libxml2 -DWI_LIBXML2 -DWI_PLIST -DWI_ZLIB -DWI_P7 -L/usr/local/Cellar/libiconv/1.14/lib -L/usr/local/lib conftest.c -liconv -framework CoreServices -framework Carbon -lcrypto -lxml2 -lz >&5
configure:8203: $? = 0
configure:8209: ./conftest
configure:8212: $? = 0
configure:8215: result: yes
configure:8275: checking curses.h usability
configure:8292: gcc -c -g -O2 -I/usr/local/Cellar/libiconv/1.14/include -I/usr/local/include -DWI_PTHREADS -DWI_CORESERVICES -DWI_CARBON -DWI_DIGESTS -DWI_CIPHERS -DWI_RSA -I/usr/include/libxml2 -DWI_LIBXML2 -DWI_PLIST -DWI_ZLIB -DWI_P7 -DWI_ICONV conftest.c >&5
configure:8298: $? = 0
configure:8312: result: yes
configure:8316: checking curses.h presence
configure:8331: gcc -E -I/usr/local/Cellar/libiconv/1.14/include -I/usr/local/include -DWI_PTHREADS -DWI_CORESERVICES -DWI_CARBON -DWI_DIGESTS -DWI_CIPHERS -DWI_RSA -I/usr/include/libxml2 -DWI_LIBXML2 -DWI_PLIST -DWI_ZLIB -DWI_P7 -DWI_ICONV conftest.c
configure:8337: $? = 0
configure:8351: result: yes
configure:8384: checking for curses.h
configure:8392: result: yes
configure:8401: checking for tgoto
configure:8457: gcc -o conftest -g -O2 -I/usr/local/Cellar/libiconv/1.14/include -I/usr/local/include -DWI_PTHREADS -DWI_CORESERVICES -DWI_CARBON -DWI_DIGESTS -DWI_CIPHERS -DWI_RSA -I/usr/include/libxml2 -DWI_LIBXML2 -DWI_PLIST -DWI_ZLIB -DWI_P7 -DWI_ICONV -L/usr/local/Cellar/libiconv/1.14/lib -L/usr/local/lib conftest.c -liconv -framework CoreServices -framework Carbon -lcrypto -lxml2 -lz >&5
Undefined symbols for architecture x86_64:
  "_tgoto", referenced from:
      _main in ccvv8Be3.o
ld: symbol(s) not found for architecture x86_64
collect2: ld returned 1 exit status
configure:8463: $? = 1
configure: failed program was:
| /* confdefs.h.  */
| #define PACKAGE_NAME "wire"
| #define PACKAGE_TARNAME "wire"
| #define PACKAGE_VERSION "2.0"
| #define PACKAGE_STRING "wire 2.0"
| #define PACKAGE_BUGREPORT "dev@read-write.fr"
| #define WI_REVISION "86d79f6"
| #define WR_VERSION "2.0"
| #define WR_PROTOCOL_VERSION "1.1"
| #define WR_BUGREPORT "dev@read-write.fr"
| #define STDC_HEADERS 1
| #define HAVE_SYS_TYPES_H 1
| #define HAVE_SYS_STAT_H 1
| #define HAVE_STDLIB_H 1
| #define HAVE_STRING_H 1
| #define HAVE_MEMORY_H 1
| #define HAVE_STRINGS_H 1
| #define HAVE_INTTYPES_H 1
| #define HAVE_STDINT_H 1
| #define HAVE_UNISTD_H 1
| #define HAVE_PTHREAD_H 1
| #define HAVE_CORESERVICES_CORESERVICES_H 1
| #define HAVE_CARBON_CARBON_H 1
| #define HAVE_COMMONCRYPTO_COMMONDIGEST_H 1
| #define HAVE_COMMONCRYPTO_COMMONCRYPTOR_H 1
| #define HAVE_COMMONCRYPTO_COMMONDIGEST_H 1
| #define HAVE_COMMONCRYPTO_COMMONCRYPTOR_H 1
| #define HAVE_OPENSSL_SHA_H 1
| #define HAVE_LIBXML_PARSER_H 1
| #define HAVE_ZLIB_H 1
| #define HAVE_ICONV_H 1
| #define HAVE_CURSES_H 1
| /* end confdefs.h.  */
| /* Define tgoto to an innocuous variant, in case <limits.h> declares tgoto.
|    For example, HP-UX 11i <limits.h> declares gettimeofday.  */
| #define tgoto innocuous_tgoto
| 
| /* System header to define __stub macros and hopefully few prototypes,
|     which can conflict with char tgoto (); below.
|     Prefer <limits.h> to <assert.h> if __STDC__ is defined, since
|     <limits.h> exists even on freestanding compilers.  */
| 
| #ifdef __STDC__
| # include <limits.h>
| #else
| # include <assert.h>
| #endif
| 
| #undef tgoto
| 
| /* Override any GCC internal prototype to avoid an error.
|    Use char because int might match the return type of a GCC
|    builtin and then its argument prototype would still apply.  */
| #ifdef __cplusplus
| extern "C"
| #endif
| char tgoto ();
| /* The GNU C library defines this for functions which it implements
|     to always fail with ENOSYS.  Some functions are actually named
|     something starting with __ and the normal name is an alias.  */
| #if defined __stub_tgoto || defined __stub___tgoto
| choke me
| #endif
| 
| int
| main ()
| {
| return tgoto ();
|   ;
|   return 0;
| }
configure:8480: result: no
configure:8486: checking for tgoto in -ltermcap
configure:8521: gcc -o conftest -g -O2 -I/usr/local/Cellar/libiconv/1.14/include -I/usr/local/include -DWI_PTHREADS -DWI_CORESERVICES -DWI_CARBON -DWI_DIGESTS -DWI_CIPHERS -DWI_RSA -I/usr/include/libxml2 -DWI_LIBXML2 -DWI_PLIST -DWI_ZLIB -DWI_P7 -DWI_ICONV -L/usr/local/Cellar/libiconv/1.14/lib -L/usr/local/lib conftest.c -ltermcap  -liconv -framework CoreServices -framework Carbon -lcrypto -lxml2 -lz >&5
configure:8527: $? = 0
configure:8545: result: yes
configure:8275: checking term.h usability
configure:8292: gcc -c -g -O2 -I/usr/local/Cellar/libiconv/1.14/include -I/usr/local/include -DWI_PTHREADS -DWI_CORESERVICES -DWI_CARBON -DWI_DIGESTS -DWI_CIPHERS -DWI_RSA -I/usr/include/libxml2 -DWI_LIBXML2 -DWI_PLIST -DWI_ZLIB -DWI_P7 -DWI_ICONV conftest.c >&5
configure:8298: $? = 0
configure:8312: result: yes
configure:8316: checking term.h presence
configure:8331: gcc -E -I/usr/local/Cellar/libiconv/1.14/include -I/usr/local/include -DWI_PTHREADS -DWI_CORESERVICES -DWI_CARBON -DWI_DIGESTS -DWI_CIPHERS -DWI_RSA -I/usr/include/libxml2 -DWI_LIBXML2 -DWI_PLIST -DWI_ZLIB -DWI_P7 -DWI_ICONV conftest.c
configure:8337: $? = 0
configure:8351: result: yes
configure:8384: checking for term.h
configure:8392: result: yes
configure:8401: checking for tgoto
configure:8480: result: no
configure:8486: checking for tgoto in -ltermcap
configure:8545: result: yes
configure:8275: checking termcap.h usability
configure:8292: gcc -c -g -O2 -I/usr/local/Cellar/libiconv/1.14/include -I/usr/local/include -DWI_PTHREADS -DWI_CORESERVICES -DWI_CARBON -DWI_DIGESTS -DWI_CIPHERS -DWI_RSA -I/usr/include/libxml2 -DWI_LIBXML2 -DWI_PLIST -DWI_ZLIB -DWI_P7 -DWI_ICONV conftest.c >&5
configure:8298: $? = 0
configure:8312: result: yes
configure:8316: checking termcap.h presence
configure:8331: gcc -E -I/usr/local/Cellar/libiconv/1.14/include -I/usr/local/include -DWI_PTHREADS -DWI_CORESERVICES -DWI_CARBON -DWI_DIGESTS -DWI_CIPHERS -DWI_RSA -I/usr/include/libxml2 -DWI_LIBXML2 -DWI_PLIST -DWI_ZLIB -DWI_P7 -DWI_ICONV conftest.c
configure:8337: $? = 0
configure:8351: result: yes
configure:8384: checking for termcap.h
configure:8392: result: yes
configure:8401: checking for tgoto
configure:8480: result: no
configure:8486: checking for tgoto in -ltermcap
configure:8545: result: yes
configure:8275: checking termios.h usability
configure:8292: gcc -c -g -O2 -I/usr/local/Cellar/libiconv/1.14/include -I/usr/local/include -DWI_PTHREADS -DWI_CORESERVICES -DWI_CARBON -DWI_DIGESTS -DWI_CIPHERS -DWI_RSA -I/usr/include/libxml2 -DWI_LIBXML2 -DWI_PLIST -DWI_ZLIB -DWI_P7 -DWI_ICONV conftest.c >&5
configure:8298: $? = 0
configure:8312: result: yes
configure:8316: checking termios.h presence
configure:8331: gcc -E -I/usr/local/Cellar/libiconv/1.14/include -I/usr/local/include -DWI_PTHREADS -DWI_CORESERVICES -DWI_CARBON -DWI_DIGESTS -DWI_CIPHERS -DWI_RSA -I/usr/include/libxml2 -DWI_LIBXML2 -DWI_PLIST -DWI_ZLIB -DWI_P7 -DWI_ICONV conftest.c
configure:8337: $? = 0
configure:8351: result: yes
configure:8384: checking for termios.h
configure:8392: result: yes
configure:8401: checking for tgoto
configure:8480: result: no
configure:8486: checking for tgoto in -ltermcap
configure:8545: result: yes
configure:8764: checking readline/readline.h usability
configure:8781: gcc -c -g -O2 -I/usr/local/Cellar/libiconv/1.14/include -I/usr/local/include -DWI_PTHREADS -DWI_CORESERVICES -DWI_CARBON -DWI_DIGESTS -DWI_CIPHERS -DWI_RSA -I/usr/include/libxml2 -DWI_LIBXML2 -DWI_PLIST -DWI_ZLIB -DWI_P7 -DWI_ICONV -DWI_TERMCAP conftest.c >&5
configure:8787: $? = 0
configure:8801: result: yes
configure:8805: checking readline/readline.h presence
configure:8820: gcc -E -I/usr/local/Cellar/libiconv/1.14/include -I/usr/local/include -DWI_PTHREADS -DWI_CORESERVICES -DWI_CARBON -DWI_DIGESTS -DWI_CIPHERS -DWI_RSA -I/usr/include/libxml2 -DWI_LIBXML2 -DWI_PLIST -DWI_ZLIB -DWI_P7 -DWI_ICONV -DWI_TERMCAP conftest.c
configure:8826: $? = 0
configure:8840: result: yes
configure:8873: checking for readline/readline.h
configure:8881: result: yes
configure:8911: checking for rl_initialize in -lreadline
configure:8946: gcc -o conftest -g -O2 -I/usr/local/Cellar/libiconv/1.14/include -I/usr/local/include -DWI_PTHREADS -DWI_CORESERVICES -DWI_CARBON -DWI_DIGESTS -DWI_CIPHERS -DWI_RSA -I/usr/include/libxml2 -DWI_LIBXML2 -DWI_PLIST -DWI_ZLIB -DWI_P7 -DWI_ICONV -DWI_TERMCAP -L/usr/local/Cellar/libiconv/1.14/lib -L/usr/local/lib conftest.c -lreadline  -liconv -framework CoreServices -framework Carbon -lcrypto -lxml2 -lz -ltermcap >&5
configure:8952: $? = 0
configure:8970: result: yes
configure:8986: checking for GNU readline
configure:9010: gcc -o conftest -g -O2 -I/usr/local/Cellar/libiconv/1.14/include -I/usr/local/include -DWI_PTHREADS -DWI_CORESERVICES -DWI_CARBON -DWI_DIGESTS -DWI_CIPHERS -DWI_RSA -I/usr/include/libxml2 -DWI_LIBXML2 -DWI_PLIST -DWI_ZLIB -DWI_P7 -DWI_ICONV -DWI_TERMCAP -L/usr/local/Cellar/libiconv/1.14/lib -L/usr/local/lib conftest.c -liconv -framework CoreServices -framework Carbon -lcrypto -lxml2 -lz -ltermcap -lreadline >&5
configure:9013: $? = 0
configure:9019: ./conftest
configure:9022: $? = 0
configure:9025: result: yes
configure:9057: checking for rl_completion_matches
configure:9087: gcc -o conftest -g -O2 -I/usr/local/Cellar/libiconv/1.14/include -I/usr/local/include -DWI_PTHREADS -DWI_CORESERVICES -DWI_CARBON -DWI_DIGESTS -DWI_CIPHERS -DWI_RSA -I/usr/include/libxml2 -DWI_LIBXML2 -DWI_PLIST -DWI_ZLIB -DWI_P7 -DWI_ICONV -DWI_TERMCAP -L/usr/local/Cellar/libiconv/1.14/lib -L/usr/local/lib conftest.c -liconv -framework CoreServices -framework Carbon -lcrypto -lxml2 -lz -ltermcap -lreadline >&5
configure:9090: $? = 0
configure:9096: ./conftest
configure:9099: $? = 0
configure:9107: result: yes
configure:9127: checking whether rl_completion_display_matches_hook is declared
configure:9160: gcc -c -g -O2 -I/usr/local/Cellar/libiconv/1.14/include -I/usr/local/include -DWI_PTHREADS -DWI_CORESERVICES -DWI_CARBON -DWI_DIGESTS -DWI_CIPHERS -DWI_RSA -I/usr/include/libxml2 -DWI_LIBXML2 -DWI_PLIST -DWI_ZLIB -DWI_P7 -DWI_ICONV -DWI_TERMCAP conftest.c >&5
configure:9166: $? = 0
configure:9181: result: yes
configure:9246: checking for special C compiler options needed for large files
configure:9339: result: no
configure:9345: checking for _FILE_OFFSET_BITS value needed for large files
configure:9380: gcc -c -g -O2 -I/usr/local/Cellar/libiconv/1.14/include -I/usr/local/include -DWI_PTHREADS -DWI_CORESERVICES -DWI_CARBON -DWI_DIGESTS -DWI_CIPHERS -DWI_RSA -I/usr/include/libxml2 -DWI_LIBXML2 -DWI_PLIST -DWI_ZLIB -DWI_P7 -DWI_ICONV -DWI_TERMCAP -DWI_READLINE conftest.c >&5
configure:9386: $? = 0
configure:9454: result: no
configure:9719: creating ./config.status

## ---------------------- ##
## Running config.status. ##
## ---------------------- ##

This file was extended by wire config.status 2.0, which was
generated by GNU Autoconf 2.61.  Invocation command line was

  CONFIG_FILES    = 
  CONFIG_HEADERS  = 
  CONFIG_LINKS    = 
  CONFIG_COMMANDS = 
  $ ./config.status 

on MacBook-Pro-de-nark.local

config.status:609: creating Makefile
config.status:609: creating config.h
config.status:849: config.h is unchanged
configure:10795: === configuring in libwired (/Users/nark/Development/Me/Cocoa/Wired/wired/wire/libwired)
configure:10898: running /bin/sh ./configure '--prefix=/usr/local'  '--enable-pthreads' 'LDFLAGS=-L/usr/local/Cellar/libiconv/1.14/lib' 'LIBS=-liconv' 'CPPFLAGS=-I/usr/local/Cellar/libiconv/1.14/include' '--enable-p7' '--enable-termcap' '--enable-iconv' '--enable-libxml2' '--with-rundir=../run/libwired' '--with-objdir=../obj' --cache-file=/dev/null --srcdir=.

## ---------------- ##
## Cache variables. ##
## ---------------- ##

ac_cv_build=i686-apple-darwin11.3.0
ac_cv_c_compiler_gnu=yes
ac_cv_env_CC_set=
ac_cv_env_CC_value=
ac_cv_env_CFLAGS_set=
ac_cv_env_CFLAGS_value=
ac_cv_env_CPPFLAGS_set=set
ac_cv_env_CPPFLAGS_value=-I/usr/local/Cellar/libiconv/1.14/include
ac_cv_env_CPP_set=
ac_cv_env_CPP_value=
ac_cv_env_LDFLAGS_set=set
ac_cv_env_LDFLAGS_value=-L/usr/local/Cellar/libiconv/1.14/lib
ac_cv_env_LIBS_set=set
ac_cv_env_LIBS_value=-liconv
ac_cv_env_build_alias_set=
ac_cv_env_build_alias_value=
ac_cv_env_host_alias_set=
ac_cv_env_host_alias_value=
ac_cv_env_target_alias_set=
ac_cv_env_target_alias_value=
ac_cv_func_gethostent=yes
ac_cv_func_herror=yes
ac_cv_func_pow=yes
ac_cv_func_setsockopt=yes
ac_cv_func_tgoto=no
ac_cv_have_decl_rl_completion_display_matches_hook=yes
ac_cv_header_Carbon_Carbon_h=yes
ac_cv_header_CommonCrypto_CommonCryptor_h=yes
ac_cv_header_CommonCrypto_CommonDigest_h=yes
ac_cv_header_CoreServices_CoreServices_h=yes
ac_cv_header_curses_h=yes
ac_cv_header_iconv_h=yes
ac_cv_header_inttypes_h=yes
ac_cv_header_libxml_parser_h=yes
ac_cv_header_memory_h=yes
ac_cv_header_openssl_sha_h=yes
ac_cv_header_pthread_h=yes
ac_cv_header_readline_readline_h=yes
ac_cv_header_stdc=yes
ac_cv_header_stdint_h=yes
ac_cv_header_stdlib_h=yes
ac_cv_header_string_h=yes
ac_cv_header_strings_h=yes
ac_cv_header_sys_stat_h=yes
ac_cv_header_sys_types_h=yes
ac_cv_header_term_h=yes
ac_cv_header_termcap_h=yes
ac_cv_header_termios_h=yes
ac_cv_header_unistd_h=yes
ac_cv_header_zlib_h=yes
ac_cv_host=i686-apple-darwin11.3.0
ac_cv_lib_crypto_SHA1_Init=yes
ac_cv_lib_iconv_iconv=no
ac_cv_lib_iconv_libiconv=yes
ac_cv_lib_readline_rl_initialize=yes
ac_cv_lib_termcap_tgoto=yes
ac_cv_lib_xml2_xmlParseFile=yes
ac_cv_lib_z_deflate=yes
ac_cv_objext=o
ac_cv_path_EGREP='/usr/bin/grep -E'
ac_cv_path_GREP=/usr/bin/grep
ac_cv_path_install='/usr/bin/install -c'
ac_cv_prog_CPP='gcc -E'
ac_cv_prog_ac_ct_CC=gcc
ac_cv_prog_cc_c89=
ac_cv_prog_cc_g=yes
ac_cv_prog_make_make_set=yes
ac_cv_sys_file_offset_bits=no
ac_cv_sys_largefile_CC=no

## ----------------- ##
## Output variables. ##
## ----------------- ##

CC='gcc'
CFLAGS='-g -O2'
CPP='gcc -E'
CPPFLAGS='-I/usr/local/Cellar/libiconv/1.14/include -I/usr/local/include -DWI_PTHREADS -DWI_CORESERVICES -DWI_CARBON -DWI_DIGESTS -DWI_CIPHERS -DWI_RSA -I/usr/include/libxml2 -DWI_LIBXML2 -DWI_PLIST -DWI_ZLIB -DWI_P7 -DWI_ICONV -DWI_TERMCAP -DWI_READLINE'
DEFS='-DHAVE_CONFIG_H'
ECHO_C='ECHO_N=''
ECHO_T=''
EGREP='/usr/bin/grep -E'
EXEEXT=''
GREP='/usr/bin/grep'
INSTALL_DATA='${INSTALL} -m 644'
INSTALL_PROGRAM='${INSTALL}'
INSTALL_SCRIPT='${INSTALL}'
LDFLAGS='-L/usr/local/Cellar/libiconv/1.14/lib -L/usr/local/lib'
LIBOBJS=''
LIBS='-liconv -framework CoreServices -framework Carbon -lcrypto -lxml2 -lz -ltermcap -lreadline'
LTLIBOBJS=''
OBJEXT='o'
PACKAGE_BUGREPORT='dev@read-write.fr'
PACKAGE_NAME='wire'
PACKAGE_STRING='wire 2.0'
PACKAGE_TARNAME='wire'
PACKAGE_VERSION='2.0'
PATH_SEPARATOR=':'
SET_MAKE=''
SHELL='/bin/sh'
WR_MAINTAINER='0'
WR_VERSION='2.0'
ac_ct_CC='gcc'
bindir='${exec_prefix}/bin'
build='i686-apple-darwin11.3.0'
build_alias=''
build_cpu='i686'
build_os='darwin11.3.0'
build_vendor='apple'
datadir='${datarootdir}'
datarootdir='${prefix}/share'
docdir='${datarootdir}/doc/${PACKAGE_TARNAME}'
dvidir='${docdir}'
exec_prefix='${prefix}'
host='i686-apple-darwin11.3.0'
host_alias=''
host_cpu='i686'
host_os='darwin11.3.0'
host_vendor='apple'
htmldir='${docdir}'
includedir='${prefix}/include'
infodir='${datarootdir}/info'
libdir='${exec_prefix}/lib'
libexecdir='${exec_prefix}/libexec'
localedir='${datarootdir}/locale'
localstatedir='${prefix}/var'
mandir='${datarootdir}/man'
objdir='obj'
oldincludedir='/usr/include'
pdfdir='${docdir}'
prefix='/usr/local'
program_transform_name='s,x,x,'
psdir='${docdir}'
rundir='run'
sbindir='${exec_prefix}/sbin'
sharedstatedir='${prefix}/com'
subdirs=' libwired'
sysconfdir='${prefix}/etc'
target_alias=''

## ----------- ##
## confdefs.h. ##
## ----------- ##

#define PACKAGE_NAME "wire"
#define PACKAGE_TARNAME "wire"
#define PACKAGE_VERSION "2.0"
#define PACKAGE_STRING "wire 2.0"
#define PACKAGE_BUGREPORT "dev@read-write.fr"
#define WI_REVISION "86d79f6"
#define WR_VERSION "2.0"
#define WR_PROTOCOL_VERSION "1.1"
#define WR_BUGREPORT "dev@read-write.fr"
#define STDC_HEADERS 1
#define HAVE_SYS_TYPES_H 1
#define HAVE_SYS_STAT_H 1
#define HAVE_STDLIB_H 1
#define HAVE_STRING_H 1
#define HAVE_MEMORY_H 1
#define HAVE_STRINGS_H 1
#define HAVE_INTTYPES_H 1
#define HAVE_STDINT_H 1
#define HAVE_UNISTD_H 1
#define HAVE_PTHREAD_H 1
#define HAVE_CORESERVICES_CORESERVICES_H 1
#define HAVE_CARBON_CARBON_H 1
#define HAVE_COMMONCRYPTO_COMMONDIGEST_H 1
#define HAVE_COMMONCRYPTO_COMMONCRYPTOR_H 1
#define HAVE_COMMONCRYPTO_COMMONDIGEST_H 1
#define HAVE_COMMONCRYPTO_COMMONCRYPTOR_H 1
#define HAVE_OPENSSL_SHA_H 1
#define HAVE_LIBXML_PARSER_H 1
#define HAVE_ZLIB_H 1
#define HAVE_ICONV_H 1
#define HAVE_CURSES_H 1
#define HAVE_TERM_H 1
#define HAVE_TERMCAP_H 1
#define HAVE_TERMIOS_H 1
#define HAVE_READLINE_READLINE_H 1
#define HAVE_RL_COMPLETION_MATCHES 1
#define HAVE_DECL_RL_COMPLETION_DISPLAY_MATCHES_HOOK 1

configure: exit 0
